{
  "general": {
    "locale": "fr-CH"
  },
  "languages": {
    "translations": {
      "fr": ["fr.json", "Mock/fr.json"]
    },
    "defaultLanguage": "fr"
  },
  "themes": {
    "url": "Mock/themes.json",
    "defaultTheme": "default_thm"
  },
  "basemaps": {
    "defaultBasemap": "fonds_geo_osm_bdcad_couleur",
    "OSM": true,
    "SwissTopoVectorTiles": true
  },
  "search": {
    "url": "https://map.lausanne.ch/search?limit=30&partitionlimit=5&interface=desktop&query=###SEARCHTERM###&lang=fr",
    "objectPreview": true,
    "layerPreview": true
  },
  "print": {
    "url": "https://map.lausanne.ch/printproxy/",
    "defaultLayout": "1) A4 portrait"
  },
  "share": {
    "service": "lstu",
    "createUrl": "https://lstu.fr/a"
  },
  "projections": {
    "EPSG:3857": "W-M",
    "EPSG:4326": "WGS84",
    "EPSG:2056": "MN95"
  },
  "map": {
    "srid": "EPSG:2056",
    "startZoom": "1",
    "startPosition": "2537785,1155260",
    "maxExtent": "2523000,1146400,2556000,1166000",
    "scales": [100000, 50000, 25000, 10000, 5000, 2500, 1000, 500, 200, 100]
  },
  "map3d": {
    "terrainUrl": "https://terrain100.geo.admin.ch/1.0.0/ch.swisstopo.terrain.3d/",
    "tilesetsUrls": ["https://vectortiles100.geo.admin.ch/3d-tiles/ch.swisstopo.swisstlm3d.3d/20201020/tileset.json"]
  },
  "bookmarks": {
    "service": "localStorage",
    "get": "",
    "post": ""
  }
}
